{
  "course_levels" : [
    {
      "Category_id" : "1",
      "category_name" : "Movie",
      "First_quiz_Instance_list" : [],
      "image_name" : "slika_1.png",
      "display_order" : 1,
      "Quiz_list" : []
    }
  ]
}