{
  "showInstruction":false,
  "title":"Introdução ao curso",
  "text":"HOLA, ¿QUÉ TAL? Meu nome é Ana. Morei e cresci em Madrid toda a minha vida, e amo ensinar espanhol a pessoas do mundo todo.\n\nAtualmente, estou dando aula para um grupo de quatro alunos: Camila, do Brasil, Max da França, Emma da Holanda e Tom da Inglaterra. Eles vieram para Madrid com o intuito de aprender espanhol e desenvolver suas carreiras. Tem também um argentino morando aqui com eles, o nome dele é Diego.\n\nEles dividem este apartamento e eu estou aqui para ensiná-los. Já estou com eles há alguns meses e eles estão avançando bem rápido. Você está convidado a se juntar a esse grupo!",
  "order":1,
  "name":"Text & Video S0",
  "instanceID":7607,
  "videoPreview":"893804_scbr_lv2-3_intro_live_v1_360p.jpg",
  "unitID":201,
  "type":1,
  "video":"http://cdn.kantoo.com/ecb/3/1447331300372/26751_scbr_lv2-3_intro_live_v1_360p.mp4"
}