{
 "result": [
            {
            "id":"1",
            "name":"Películas"
            },
            {
            "id":"2",
            "name":"TV"
            },
            {
            "id":"3",
            "name":"Música"
            },
            {
            "id":"4",
            "name":"Celebridades"
            },
            {
            "id":"5",
            "name":"Records"
            }
            ]
}
