{
    "vip_course": {
        "vip_categories": [{
                           "first_quiz_Instance_list": [],
                           "category_name": "Movie",
                           "image_name": "vip_category_1",
                           "image_url": "http://s3.amazonaws.com/test_lamark_images/vip_category_1.png",
                           "display_order": 1,
                           "category_id": 1,
                           "availability": 1,
                           "quiz_list": [{
                                         "description": "",
                                         "quiz_id": 1,
                                         "av_start_date": "2016/10/17 00:00:00",
                                         "av_end_date": "2018/11/25 12:00:00",
                                         "image_name": "vip_category_1",
                                         "instance_list": [{
                                                           "instance_id": 1,
                                                           "answers": [{
                                                                       "answers_id": 1,
                                                                       "text": "Segura a Onda",
                                                                       "isCorrect": "0",
                                                                       "image": "http://s3.amazonaws.com/test_media_files/ios/55739399.jpg"
                                                                       }, {
                                                                       "answers_id": 2,
                                                                       "text": "Super Gatas",
                                                                       "isCorrect": "0",
                                                                       "image": "http://s3.amazonaws.com/test_media_files/ios/115409688.jpg"
                                                                       }, {
                                                                       "answers_id": 3,
                                                                       "text": "The Cosby Show",
                                                                       "isCorrect": "0",
                                                                       "image": "http://s3.amazonaws.com/test_media_files/ios/73479605.jpg"
                                                                       }, {
                                                                       "answers_id": 4,
                                                                       "text": "Cheers",
                                                                       "isCorrect": "1",
                                                                       "image": "http://s3.amazonaws.com/test_media_files/ios/2999241.jpg"
                                                                       }],
                                                           "isOneImageLayout": "0",
                                                           "bigImage": "",
                                                           "questionText": "Qual sitcom, estrelada por Ted Danson, falava sobre um bar em Boston?",
                                                           "instanceType": "2"
                                                           }, {
                                                           "instance_id": 2,
                                                           "answers": [{"text": "Scrubs",
                                                                        "isCorrect": "0"
                                                                        },
                                                                        { "text": "Família Moderna",
                                                                          "isCorrect": "0"},
                                                                        {
                                                                          "text": "The Jeffersons",
                                                                          "isCorrect": "0"},
                                                                        {
                                                                          "text": "Um Maluco no Pedaço",
                                                                          "isCorrect": "1"}],
                                                            "isOneImageLayout": "1",
                                                            "bigImage": "http://s3.amazonaws.com/test_media_files/ios/1761999.jpg",
                                                            "questionText": "No set de qual sitcom Will Smith e Jada Pinkett-Smith se conheceram?",
                                                            "instanceType": "1"
                                                           }, {
                                                           "instance_id": 3,
                                                           "answers": [{"text": "Friends",
                                                                        "isCorrect": "0"
                                                                        },
                                                                        { "text": "Seinfeld",
                                                                          "isCorrect": "0"},
                                                                        {
                                                                          "text": "Big Bang: A Teoria",
                                                                          "isCorrect": "1"},
                                                                        {
                                                                          "text": "Brooklyn 9-9",
                                                                          "isCorrect": "0"}],
                                                            "isOneImageLayout": "1",
                                                            "bigImage": "http://s3.amazonaws.com/test_media_files/ios/513732548.jpg",
                                                            "questionText": "Qual das seguintes Sitcoms não acontece em NY?",
                                                            "instanceType": "1"
                                                           }, {
                                                           "instance_id": 4,
                                                           "answers": [{
                                                                       "answers_id": 1,
                                                                       "text": "I love Lucy",
                                                                       "isCorrect": "0",
                                                                       "image": "http://s3.amazonaws.com/test_media_files/ios/3227665.jpg"
                                                                       }, {
                                                                       "answers_id": 2,
                                                                       "text": "The Honeymooners",
                                                                       "isCorrect": "1",
                                                                       "image": "http://s3.amazonaws.com/test_media_files/ios/2049126.jpg"
                                                                       }, {
                                                                       "answers_id": 3,
                                                                       "text": "Dick Van Dyke",
                                                                       "isCorrect": "0",
                                                                       "image": "http://s3.amazonaws.com/test_media_files/ios/544691923.jpg"
                                                                       }, {
                                                                       "answers_id": 4,
                                                                       "text": "Leave it to Beaver",
                                                                       "isCorrect": "0",
                                                                       "image": "http://s3.amazonaws.com/test_media_files/ios/2053338.jpg"
                                                                       }],
                                                           "isOneImageLayout": "0",
                                                           "bigImage": "",
                                                           "questionText": "Qual sitcom dos anos 50 era sobre uma ruiva engraçada e seu marido cubano?",
                                                           "instanceType": "2"
                                                           }, {
                                                           "instance_id": 5,
                                                           "answers": [{
                                                                       "text": "Três É Demais",
                                                                       "isCorrect": "0",
                                                                       "image": "http://s3.amazonaws.com/test_media_files/ios/93093981.jpg"
                                                                       }, {
                                                                       "text": "A Família Brady",
                                                                       "isCorrect": "1",
                                                                       "image": "http://s3.amazonaws.com/test_media_files/ios/1908560.jpg"
                                                                       }, {
                                                                       "text": "Tudo em Família",
                                                                       "isCorrect": "0",
                                                                       "image": "http://s3.amazonaws.com/test_media_files/ios/137802772.jpg"
                                                                       }, {
                                                                       "text": "Um Amor de Família",
                                                                       "isCorrect": "0",
                                                                       "image": "http://s3.amazonaws.com/test_media_files/ios/2433251.jpg"
                                                                       }],
                                                           "isOneImageLayout": "0",
                                                           "bigImage": "",
                                                           "questionText": "Qual dessas sitcons era sobre duas famílias unidas como uma só?",
                                                           "instanceType": "2"
                                                           }, {
                                                           "instance_id": 6,
                                                           "answers": [{"text": "The Larry Sanders show",
                                                                        "isCorrect": "0"
                                                                        },
                                                                        { "text": "Cheers",
                                                                          "isCorrect": "0"},
                                                                        {
                                                                          "text": "Seinfeld",
                                                                          "isCorrect": "0"},
                                                                        {
                                                                          "text": "Roseanne",
                                                                          "isCorrect": "1"}],
                                                            "isOneImageLayout": "1",
                                                            "bigImage": "http://s3.amazonaws.com/test_media_files/ios/71088762.jpg",
                                                            "questionText": "Qual sitcom deu início à carreira de John Goodman?",
                                                            "instanceType": "1"
                                                           }, {
                                                           "instance_id": 7,
                                                           "answers": [{"text": "Colômbia",
                                                                        "isCorrect": "0"
                                                                        },
                                                                        { "text": "Índia",
                                                                          "isCorrect": "0"},
                                                                        {
                                                                          "text": "Suécia",
                                                                          "isCorrect": "0"},
                                                                        {
                                                                          "text": "Nunca foi revelado",
                                                                          "isCorrect": "1"}],
                                                            "isOneImageLayout": "1",
                                                            "bigImage": "http://s3.amazonaws.com/test_media_files/ios/818652.jpg",
                                                            "questionText": "No \"De Volta aos Anos 70\" de qual país era Fez?",
                                                            "instanceType": "1"
                                                           }, {
                                                           "instance_id": 8,
                                                           "answers": [{"text": "Apresentador de TV",
                                                                        "isCorrect": "0"
                                                                        },
                                                                        { "text": "Carteiro",
                                                                          "isCorrect": "0"},
                                                                        {
                                                                          "text": "Vendedor de seguros",
                                                                          "isCorrect": "0"},
                                                                        {
                                                                          "text": "Vendedor de sapatos ",
                                                                          "isCorrect": "1"}],
                                                            "isOneImageLayout": "1",
                                                            "bigImage": "http://s3.amazonaws.com/test_media_files/ios/2664025.jpg",
                                                            "questionText": "Qual é o trabalho de Al Bundy?",
                                                            "instanceType": "1"
                                                           }, {
                                                           "instance_id": 9,
                                                           "answers": [{"text": "David Brent",
                                                                        "isCorrect": "0"
                                                                        },
                                                                        { "text": "Michael Scott",
                                                                          "isCorrect": "1"},
                                                                        {
                                                                          "text": "Al Bundy",
                                                                          "isCorrect": "0"},
                                                                        {
                                                                          "text": "Dwight Schroot",
                                                                          "isCorrect": "0"}],
                                                            "isOneImageLayout": "1",
                                                            "bigImage": "http://s3.amazonaws.com/test_media_files/ios/85980567.jpg",
                                                            "questionText": "Qual era o nome do personagem interpretado por Steve Carrel em \"Vida de Escritório\"?",
                                                            "instanceType": "1"
                                                           }, {
                                                           "instance_id": 10,
                                                           "answers": [{"text": "Smithers",
                                                                        "isCorrect": "0"
                                                                        },
                                                                        { "text": "Homer",
                                                                          "isCorrect": "0"},
                                                                        {
                                                                          "text": "Bart",
                                                                          "isCorrect": "0"},
                                                                        {
                                                                          "text": "Maggie",
                                                                          "isCorrect": "1"}],
                                                            "isOneImageLayout": "1",
                                                            "bigImage": "http://s3.amazonaws.com/test_media_files/ios/461338259.jpg",
                                                            "questionText": "No clássico episódio de \"Os Simpsons\", quem atirou no Sr. Burns?",
                                                            "instanceType": "1"
                                                           }
                                                           
                                                           ],
                                         "quiz_name": "Batman",
                                         "is_promo": "Yes",
                                         "image_url": "http://s3.amazonaws.com/test_lamark_images/quizzes_1_1.png",
                                         "teaser": "",
                                         "availability": 1,
                                         "order_in_category": 1,
                                         "price": "0"
                                         
                                         }, {
                                         "description": "",
                                         "quiz_id": 1,
                                         "av_start_date": "2016/10/20 00:00:00",
                                         "av_end_date": "2018/10/30 12:00:00",
                                         "image_name": "vip_category_2",
                                         "instance_list": [{
                                                           "instance_id": 1,
                                                           "answers": [{
                                                                       "answers_id": 1,
                                                                       "text": "",
                                                                       "isCorrect": "0",
                                                                       "image": "http://s3.amazonaws.com/test_lamark_images/bw.png"
                                                                       }, {
                                                                       "answers_id": 2,
                                                                       "text": "",
                                                                       "isCorrect": "1",
                                                                       "image": "http://s3.amazonaws.com/test_lamark_images/gc.png"
                                                                       }, {
                                                                       "answers_id": 3,
                                                                       "text": "",
                                                                       "isCorrect": "0",
                                                                       "image": "http://s3.amazonaws.com/test_lamark_images/tc.png"
                                                                       }, {
                                                                       "answers_id": 4,
                                                                       "text": "",
                                                                       "isCorrect": "0",
                                                                       "image": "http://s3.amazonaws.com/test_lamark_images/th.png"
                                                                       }],
                                                           "isOneImageLayout": "0",
                                                           "bigImage": "",
                                                           "questionText": "Cuál de las siguientes STARS actuado de Batman?"
                                                           }],
                                         "quiz_name": "Angelina Jolie",
                                         "is_promo": "Yes",
                                         "image_url": "http://s3.amazonaws.com/test_lamark_images/quizzes_1_2.png",
                                         "teaser": "",
                                         "availability": 1,
                                         "order_in_category": 2,
                                         "price": 1
                                         }, {
                                         "description": "",
                                         "quiz_id": 2,
                                         "av_start_date": "",
                                         "av_end_date": "",
                                         "image_name": "vip_category_3",
                                         "instance_list": [{
                                                           "instance_id": 1,
                                                           "answers": [{
                                                                       "answers_id": 1,
                                                                       "text": "",
                                                                       "isCorrect": "0",
                                                                       "image": "http://s3.amazonaws.com/test_lamark_images/bw.png"
                                                                       }, {
                                                                       "answers_id": 2,
                                                                       "text": "",
                                                                       "isCorrect": "1",
                                                                       "image": "http://s3.amazonaws.com/test_lamark_images/gc.png"
                                                                       }, {
                                                                       "answers_id": 3,
                                                                       "text": "",
                                                                       "isCorrect": "0",
                                                                       "image": "http://s3.amazonaws.com/test_lamark_images/tc.png"
                                                                       }, {
                                                                       "answers_id": 4,
                                                                       "text": "",
                                                                       "isCorrect": "0",
                                                                       "image": "http://s3.amazonaws.com/test_lamark_images/th.png"
                                                                       }],
                                                           "isOneImageLayout": "0",
                                                           "bigImage": "",
                                                           "questionText": "Cuál de las siguientes STARS actuado de Batman?"
                                                           }],
                                         "quiz_name": "Tarantino",
                                         "is_promo": "Yes",
                                         "image_url": "http://s3.amazonaws.com/test_lamark_images/quizzes_1_3.png",
                                         "teaser": "",
                                         "availability": 1,
                                         "order_in_category": 3,
                                         "price": 2
                                         }, {
                                         "description": "",
                                         "quiz_id": 3,
                                         "av_start_date": "",
                                         "av_end_date": "",
                                         "image_name": "vip_category_3",
                                         "instance_list": "",
                                         "quiz_name": "Romance",
                                         "is_promo": "Yes",
                                         "image_url": "http://s3.amazonaws.com/test_lamark_images/quizzes_1_4.png",
                                         "teaser": "",
                                         "availability": 1,
                                         "order_in_category": 4,
                                         "price": 4
                                         }, {
                                         "description": "",
                                         "quiz_id": 4,
                                         "av_start_date": "",
                                         "av_end_date": "",
                                         "image_name": "vip_category_3",
                                         "instance_list": "",
                                         "quiz_name": "Leonardo Dicaprio",
                                         "is_promo": "Yes",
                                         "image_url": "http://s3.amazonaws.com/test_lamark_images/quizzes_1_5.png",
                                         "teaser": "",
                                         "availability": 1,
                                         "order_in_category": 5,
                                         "price": 8
                                         }, {
                                         "description": "",
                                         "quiz_id": 5,
                                         "av_start_date": "",
                                         "av_end_date": "",
                                         "image_name": "vip_category_3",
                                         "instance_list": "",
                                         "quiz_name": "Action",
                                         "is_promo": "Yes",
                                         "image_url": "http://s3.amazonaws.com/test_lamark_images/quizzes_1_6.png",
                                         "teaser": "",
                                         "availability": 0,
                                         "order_in_category": 6,
                                         "price": 2
                                         }, {
                                         "description": "",
                                         "quiz_id": 6,
                                         "av_start_date": "",
                                         "av_end_date": "",
                                         "image_name": "vip_category_3",
                                         "instance_list": "",
                                         "quiz_name": "Jim Carrey",
                                         "is_promo": "Yes",
                                         "image_url": "http://s3.amazonaws.com/test_lamark_images/quizzes_1_7.png",
                                         "teaser": "",
                                         "availability": 0,
                                         "order_in_category": 7,
                                         "price": 2
                                         }, {
                                         "description": "",
                                         "quiz_id": 7,
                                         "av_start_date": "",
                                         "av_end_date": "",
                                         "image_name": "vip_category_3",
                                         "instance_list": "",
                                         "quiz_name": "Star Wars",
                                         "is_promo": "Yes",
                                         "image_url": "http://s3.amazonaws.com/test_lamark_images/quizzes_1_8.png",
                                         "teaser": "",
                                         "availability": 0,
                                         "order_in_category": 8,
                                         "price": 2
                                         }, {
                                         "description": "",
                                         "quiz_id": 8,
                                         "av_start_date": "",
                                         "av_end_date": "",
                                         "image_name": "vip_category_3",
                                         "instance_list": "",
                                         "quiz_name": "X-Men",
                                         "is_promo": "Yes",
                                         "image_url": "http://s3.amazonaws.com/test_lamark_images/quizzes_1_9.png",
                                         "teaser": "",
                                         "availability": 0,
                                         "order_in_category": 9,
                                         "price": 2
                                         }]
                           
                           }, {
                           "first_quiz_Instance_list": [],
                           "category_name": "TV 0",
                           "image_name": "vip_category_2",
                           "image_url": "http://s3.amazonaws.com/test_lamark_images/vip_category_5.png",
                           "display_order": 2,
                           "category_id": 2,
                           "availability": 1,
                           "quiz_list": [{
                                         "description": "",
                                         "quiz_id": 3,
                                         "av_start_date": "",
                                         "av_end_date": "",
                                         "image_name": "vip_category_3",
                                         "instance_list": "",
                                         "quiz_name": "Romance",
                                         "is_promo": "Yes",
                                         "image_url": "http://s3.amazonaws.com/test_lamark_images/quizzes_1_4.png",
                                         "teaser": "",
                                         "availability": 1,
                                         "order_in_category": 4,
                                         "price": 4
                                         }]
                           }, {
                           "first_quiz_Instance_list": [],
                           "category_name": "TV MTV",
                           "image_name": "vip_category_3",
                           "image_url": "http://s3.amazonaws.com/test_lamark_images/vip_category_2.png",
                           "display_order": 3,
                           "category_id": 2,
                           "availability": 1,
                           "quiz_list": []
                           }, {
                           "first_quiz_Instance_list": [],
                           "category_name": "TV 1",
                           "image_name": "vip_category_4",
                           "image_url": "http://s3.amazonaws.com/test_lamark_images/vip_category_4.png",
                           "display_order": 4,
                           "category_id": 2,
                           "availability": 1,
                           "quiz_list": []
                           }, {
                           "first_quiz_Instance_list": [],
                           "category_name": "TV 2",
                           "image_name": "vip_category_2",
                           "image_url": "http://s3.amazonaws.com/test_lamark_images/vip_category_3.png",
                           "display_order": 5,
                           "category_id": 2,
                           "availability": 1,
                           "quiz_list": []
                           }, {
                           "first_quiz_Instance_list": [],
                           "category_name": "TV 3",
                           "image_name": "vip_category_2",
                           "image_url": "http://s3.amazonaws.com/test_lamark_images/vip_category_2.png",
                           "display_order": 6,
                           "category_id": 2,
                           "availability": 1,
                           "quiz_list": []
                           }, {
                           "first_quiz_Instance_list": [],
                           "category_name": "Music",
                           "image_name": "vip_category_3.png",
                           "image_url": "http://s3.amazonaws.com/test_lamark_images/vip_category_3.png",
                           "display_order": 7,
                           "category_id": "3",
                           "availability": 1,
                           "quiz_list": []
                           }, {
                           "first_quiz_Instance_list": [],
                           "category_name": "Celebs",
                           "image_name": "vip_category_4",
                           "image_url": "http://s3.amazonaws.com/test_lamark_images/vip_category_4.png",
                           "display_order": 8,
                           "category_id": 4,
                           "availability": 1,
                           "quiz_list": []
                           }, {
                           "first_quiz_Instance_list": [],
                           "category_name": "Records",
                           "image_name": "vip_category_5",
                           "image_url": "http://s3.amazonaws.com/test_lamark_images/vip_category_5.png",
                           "display_order": 9,
                           "category_id": 5,
                           "availability": 0,
                           "quiz_list": []
                           }, {
                           "first_quiz_Instance_list": [],
                           "category_name": "Record 2",
                           "image_name": "vip_category_2.png",
                           "image_url": "http://s3.amazonaws.com/test_lamark_images/vip_category_2.png",
                           "display_order": 10,
                           "category_id": 5,
                           "availability": 0,
                           "quiz_list": [{
                                         "description": "",
                                         "quiz_id": 1,
                                         "av_start_date": "",
                                         "av_end_date": "",
                                         "image_name": "vip_category_1",
                                         "instance_list": "",
                                         "quiz_name": "Batman",
                                         "is_promo": "Yes",
                                         "image_url": "http://s3.amazonaws.com/test_lamark_images/quizzes_1_1.png",
                                         "teaser": "",
                                         "availability": 1,
                                         "order_in_category": 1,
                                         "price": "0"
                                         }]
                           }, {
                           "first_quiz_Instance_list": [],
                           "category_name": "Record 2",
                           "image_name": "vip_category_2.png",
                           "image_url": "http://s3.amazonaws.com/test_lamark_images/vip_category_2.png",
                           "display_order": 11,
                           "category_id": 5,
                           "availability": 0,
                           "quiz_list": [{
                                         "description": "",
                                         "quiz_id": 1,
                                         "av_start_date": "",
                                         "av_end_date": "",
                                         "image_name": "vip_category_1",
                                         "instance_list": "",
                                         "quiz_name": "Batman",
                                         "is_promo": "Yes",
                                         "image_url": "http://s3.amazonaws.com/test_lamark_images/quizzes_1_1.png",
                                         "teaser": "",
                                         "availability": 1,
                                         "order_in_category": 1,
                                         "price": "0"
                                         }]
                           }]
    }
}
